{
  "builders": [{
    "type": "azure-arm",

    "client_id": "xxxxx",
    "client_secret": "xxxxx",
    "tenant_id": "xxxxx",
    "subscription_id": "xxxxx",

    "build_resource_group_name": "xq-resource-group",
    "managed_image_resource_group_name": "xq-resource-group",
    "managed_image_name": "XQJobrunnerImage",

    "os_type": "Linux",
    "image_publisher": "Canonical",
    "image_offer": "UbuntuServer",
    "image_sku": "18.04-LTS",

    "vm_size": "Standard_DS2_v2"
  }],
  "provisioners": [{
    "type": "shell",
    "script": "jobrunner-provision.sh"
  }]
}
